# MagicaVoxel @ Ephtracy

# group
o 

# material
mtllib Terrain-15.mtl
usemtl palette

# normals
vn -1 0 0
vn 1 0 0
vn 0 0 1
vn 0 0 -1
vn 0 -1 0
vn 0 1 0

# texcoords
vt 0.119141 0.5
vt 0.224609 0.5
vt 0.572266 0.5

# verts
v -30 0 6
v -30 0 -6
v -30 0.1 6
v -30 0.1 -6
v -30 0.5 6
v -30 0.5 -6
v -30 0.6 6
v -30 0.6 -6
v -21 0.1 6
v -21 0.1 5.9
v -21 0.5 6
v -21 0.5 5.9
v -21 0.6 6
v -21 0.6 5.9
v -20.8 0.1 5.9
v -20.8 0.1 5.8
v -20.8 0.5 5.9
v -20.8 0.5 5.8
v -20.8 0.6 5.9
v -20.8 0.6 5.8
v -20.6 0.1 5.8
v -20.6 0.1 5.7
v -20.6 0.5 5.8
v -20.6 0.5 5.7
v -20.6 0.6 5.8
v -20.6 0.6 5.7
v -20.5 0.1 5.7
v -20.5 0.1 5.6
v -20.5 0.5 5.7
v -20.5 0.5 5.6
v -20.5 0.6 5.7
v -20.5 0.6 5.6
v -20.3 0.1 5.6
v -20.3 0.1 5.5
v -20.3 0.5 5.6
v -20.3 0.5 5.5
v -20.3 0.6 5.6
v -20.3 0.6 5.5
v -20.2 0.1 5.5
v -20.2 0.1 5.4
v -20.2 0.5 5.5
v -20.2 0.5 5.4
v -20.2 0.6 5.5
v -20.2 0.6 5.4
v -20.1 0.1 5.4
v -20.1 0.1 5.3
v -20.1 0.5 5.4
v -20.1 0.5 5.3
v -20.1 0.6 5.4
v -20.1 0.6 5.3
v -20 0.1 5.3
v -20 0.1 5.2
v -20 0.5 5.3
v -20 0.5 5.2
v -20 0.6 5.3
v -20 0.6 5.2
v -19.9 0.1 5.2
v -19.9 0.1 5.1
v -19.9 0.5 5.2
v -19.9 0.5 5.1
v -19.9 0.6 5.2
v -19.9 0.6 5.1
v -19.8 0.1 5.1
v -19.8 0.1 5
v -19.8 0.5 5.1
v -19.8 0.5 5
v -19.8 0.6 5.1
v -19.8 0.6 5
v -19.6 0.1 5
v -19.6 0.1 4.9
v -19.6 0.5 5
v -19.6 0.5 4.9
v -19.6 0.6 5
v -19.6 0.6 4.9
v -19.5 0.1 4.9
v -19.5 0.1 4.8
v -19.5 0.5 4.9
v -19.5 0.5 4.8
v -19.5 0.6 4.9
v -19.5 0.6 4.8
v -19.4 0.1 4.8
v -19.4 0.1 4.7
v -19.4 0.5 4.8
v -19.4 0.5 4.7
v -19.4 0.6 4.8
v -19.4 0.6 4.7
v -19.3 0.1 4.7
v -19.3 0.1 4.6
v -19.3 0.5 4.7
v -19.3 0.5 4.6
v -19.3 0.6 4.7
v -19.3 0.6 4.6
v -19.2 0.1 4.6
v -19.2 0.1 4.5
v -19.2 0.5 4.6
v -19.2 0.5 4.5
v -19.2 0.6 4.6
v -19.2 0.6 4.5
v -19.1 0.1 4.5
v -19.1 0.1 4.4
v -19.1 0.5 4.5
v -19.1 0.5 4.4
v -19.1 0.6 4.5
v -19.1 0.6 4.4
v -19 0.1 4.4
v -19 0.1 4.3
v -19 0.5 4.4
v -19 0.5 4.3
v -19 0.6 4.4
v -19 0.6 4.3
v -18.9 0.1 4.3
v -18.9 0.1 4.2
v -18.9 0.5 4.3
v -18.9 0.5 4.2
v -18.9 0.6 4.3
v -18.9 0.6 4.2
v -18.8 0.1 4.2
v -18.8 0.1 4.1
v -18.8 0.5 4.2
v -18.8 0.5 4.1
v -18.8 0.6 4.2
v -18.8 0.6 4.1
v -18.7 0.1 4.1
v -18.7 0.1 4
v -18.7 0.5 4.1
v -18.7 0.5 4
v -18.7 0.6 4.1
v -18.7 0.6 4
v -18.5 0.1 4
v -18.5 0.1 3.9
v -18.5 0.5 4
v -18.5 0.5 3.9
v -18.5 0.6 4
v -18.5 0.6 3.9
v -18.4 0.1 3.9
v -18.4 0.1 3.8
v -18.4 0.5 3.9
v -18.4 0.5 3.8
v -18.4 0.6 3.9
v -18.4 0.6 3.8
v -18.2 0.1 3.8
v -18.2 0.1 3.7
v -18.2 0.5 3.8
v -18.2 0.5 3.7
v -18.2 0.6 3.8
v -18.2 0.6 3.7
v -18 0 6
v -18 0 -6
v -18 0.1 6
v -18 0.1 3.7
v -18 0.1 -6
v -18 0.5 3.7
v -18 0.5 -6
v -18 0.6 3.7
v -18 0.6 -6
v -30 0 6
v -30 0.1 6
v -30 0.5 6
v -30 0.6 6
v -21 0.1 6
v -21 0.5 6
v -21 0.6 6
v -18 0 6
v -18 0.1 6
v -21 0.1 5.9
v -21 0.5 5.9
v -21 0.6 5.9
v -20.8 0.1 5.9
v -20.8 0.5 5.9
v -20.8 0.6 5.9
v -20.8 0.1 5.8
v -20.8 0.5 5.8
v -20.8 0.6 5.8
v -20.6 0.1 5.8
v -20.6 0.5 5.8
v -20.6 0.6 5.8
v -20.6 0.1 5.7
v -20.6 0.5 5.7
v -20.6 0.6 5.7
v -20.5 0.1 5.7
v -20.5 0.5 5.7
v -20.5 0.6 5.7
v -20.5 0.1 5.6
v -20.5 0.5 5.6
v -20.5 0.6 5.6
v -20.3 0.1 5.6
v -20.3 0.5 5.6
v -20.3 0.6 5.6
v -20.3 0.1 5.5
v -20.3 0.5 5.5
v -20.3 0.6 5.5
v -20.2 0.1 5.5
v -20.2 0.5 5.5
v -20.2 0.6 5.5
v -20.2 0.1 5.4
v -20.2 0.5 5.4
v -20.2 0.6 5.4
v -20.1 0.1 5.4
v -20.1 0.5 5.4
v -20.1 0.6 5.4
v -20.1 0.1 5.3
v -20.1 0.5 5.3
v -20.1 0.6 5.3
v -20 0.1 5.3
v -20 0.5 5.3
v -20 0.6 5.3
v -20 0.1 5.2
v -20 0.5 5.2
v -20 0.6 5.2
v -19.9 0.1 5.2
v -19.9 0.5 5.2
v -19.9 0.6 5.2
v -19.9 0.1 5.1
v -19.9 0.5 5.1
v -19.9 0.6 5.1
v -19.8 0.1 5.1
v -19.8 0.5 5.1
v -19.8 0.6 5.1
v -19.8 0.1 5
v -19.8 0.5 5
v -19.8 0.6 5
v -19.6 0.1 5
v -19.6 0.5 5
v -19.6 0.6 5
v -19.6 0.1 4.9
v -19.6 0.5 4.9
v -19.6 0.6 4.9
v -19.5 0.1 4.9
v -19.5 0.5 4.9
v -19.5 0.6 4.9
v -19.5 0.1 4.8
v -19.5 0.5 4.8
v -19.5 0.6 4.8
v -19.4 0.1 4.8
v -19.4 0.5 4.8
v -19.4 0.6 4.8
v -19.4 0.1 4.7
v -19.4 0.5 4.7
v -19.4 0.6 4.7
v -19.3 0.1 4.7
v -19.3 0.5 4.7
v -19.3 0.6 4.7
v -19.3 0.1 4.6
v -19.3 0.5 4.6
v -19.3 0.6 4.6
v -19.2 0.1 4.6
v -19.2 0.5 4.6
v -19.2 0.6 4.6
v -19.2 0.1 4.5
v -19.2 0.5 4.5
v -19.2 0.6 4.5
v -19.1 0.1 4.5
v -19.1 0.5 4.5
v -19.1 0.6 4.5
v -19.1 0.1 4.4
v -19.1 0.5 4.4
v -19.1 0.6 4.4
v -19 0.1 4.4
v -19 0.5 4.4
v -19 0.6 4.4
v -19 0.1 4.3
v -19 0.5 4.3
v -19 0.6 4.3
v -18.9 0.1 4.3
v -18.9 0.5 4.3
v -18.9 0.6 4.3
v -18.9 0.1 4.2
v -18.9 0.5 4.2
v -18.9 0.6 4.2
v -18.8 0.1 4.2
v -18.8 0.5 4.2
v -18.8 0.6 4.2
v -18.8 0.1 4.1
v -18.8 0.5 4.1
v -18.8 0.6 4.1
v -18.7 0.1 4.1
v -18.7 0.5 4.1
v -18.7 0.6 4.1
v -18.7 0.1 4
v -18.7 0.5 4
v -18.7 0.6 4
v -18.5 0.1 4
v -18.5 0.5 4
v -18.5 0.6 4
v -18.5 0.1 3.9
v -18.5 0.5 3.9
v -18.5 0.6 3.9
v -18.4 0.1 3.9
v -18.4 0.5 3.9
v -18.4 0.6 3.9
v -18.4 0.1 3.8
v -18.4 0.5 3.8
v -18.4 0.6 3.8
v -18.2 0.1 3.8
v -18.2 0.5 3.8
v -18.2 0.6 3.8
v -18.2 0.1 3.7
v -18.2 0.5 3.7
v -18.2 0.6 3.7
v -18 0.1 3.7
v -18 0.5 3.7
v -18 0.6 3.7
v -30 0 -6
v -30 0.1 -6
v -30 0.5 -6
v -30 0.6 -6
v -18 0 -6
v -18 0.1 -6
v -18 0.5 -6
v -18 0.6 -6
v -30 0 6
v -18 0 6
v -30 0 -6
v -18 0 -6
v -21 0.1 6
v -18 0.1 6
v -21 0.1 5.9
v -20.8 0.1 5.9
v -20.8 0.1 5.8
v -20.6 0.1 5.8
v -20.6 0.1 5.7
v -20.5 0.1 5.7
v -20.5 0.1 5.6
v -20.3 0.1 5.6
v -20.3 0.1 5.5
v -20.2 0.1 5.5
v -20.2 0.1 5.4
v -20.1 0.1 5.4
v -20.1 0.1 5.3
v -20 0.1 5.3
v -20 0.1 5.2
v -19.9 0.1 5.2
v -19.9 0.1 5.1
v -19.8 0.1 5.1
v -19.8 0.1 5
v -19.6 0.1 5
v -19.6 0.1 4.9
v -19.5 0.1 4.9
v -19.5 0.1 4.8
v -19.4 0.1 4.8
v -19.4 0.1 4.7
v -19.3 0.1 4.7
v -19.3 0.1 4.6
v -19.2 0.1 4.6
v -19.2 0.1 4.5
v -19.1 0.1 4.5
v -19.1 0.1 4.4
v -19 0.1 4.4
v -19 0.1 4.3
v -18.9 0.1 4.3
v -18.9 0.1 4.2
v -18.8 0.1 4.2
v -18.8 0.1 4.1
v -18.7 0.1 4.1
v -18.7 0.1 4
v -18.5 0.1 4
v -18.5 0.1 3.9
v -18.4 0.1 3.9
v -18.4 0.1 3.8
v -18.2 0.1 3.8
v -18.2 0.1 3.7
v -18 0.1 3.7
v -30 0.6 6
v -21 0.6 6
v -21 0.6 5.9
v -20.8 0.6 5.9
v -20.8 0.6 5.8
v -20.6 0.6 5.8
v -20.6 0.6 5.7
v -20.5 0.6 5.7
v -20.5 0.6 5.6
v -20.3 0.6 5.6
v -20.3 0.6 5.5
v -20.2 0.6 5.5
v -20.2 0.6 5.4
v -20.1 0.6 5.4
v -20.1 0.6 5.3
v -20 0.6 5.3
v -20 0.6 5.2
v -19.9 0.6 5.2
v -19.9 0.6 5.1
v -19.8 0.6 5.1
v -19.8 0.6 5
v -19.6 0.6 5
v -19.6 0.6 4.9
v -19.5 0.6 4.9
v -19.5 0.6 4.8
v -19.4 0.6 4.8
v -19.4 0.6 4.7
v -19.3 0.6 4.7
v -19.3 0.6 4.6
v -19.2 0.6 4.6
v -19.2 0.6 4.5
v -19.1 0.6 4.5
v -19.1 0.6 4.4
v -19 0.6 4.4
v -19 0.6 4.3
v -18.9 0.6 4.3
v -18.9 0.6 4.2
v -18.8 0.6 4.2
v -18.8 0.6 4.1
v -18.7 0.6 4.1
v -18.7 0.6 4
v -18.5 0.6 4
v -18.5 0.6 3.9
v -18.4 0.6 3.9
v -18.4 0.6 3.8
v -18.2 0.6 3.8
v -18.2 0.6 3.7
v -18 0.6 3.7
v -30 0.6 -6
v -18 0.6 -6

# faces
f 3/1/1 2/1/1 1/1/1
f 4/1/1 2/1/1 3/1/1
f 5/2/1 4/2/1 3/2/1
f 6/2/1 4/2/1 5/2/1
f 7/3/1 6/3/1 5/3/1
f 8/3/1 6/3/1 7/3/1
f 9/2/2 10/2/2 11/2/2
f 11/2/2 10/2/2 12/2/2
f 11/3/2 12/3/2 13/3/2
f 13/3/2 12/3/2 14/3/2
f 15/2/2 16/2/2 17/2/2
f 17/2/2 16/2/2 18/2/2
f 17/3/2 18/3/2 19/3/2
f 19/3/2 18/3/2 20/3/2
f 21/2/2 22/2/2 23/2/2
f 23/2/2 22/2/2 24/2/2
f 23/3/2 24/3/2 25/3/2
f 25/3/2 24/3/2 26/3/2
f 27/2/2 28/2/2 29/2/2
f 29/2/2 28/2/2 30/2/2
f 29/3/2 30/3/2 31/3/2
f 31/3/2 30/3/2 32/3/2
f 33/2/2 34/2/2 35/2/2
f 35/2/2 34/2/2 36/2/2
f 35/3/2 36/3/2 37/3/2
f 37/3/2 36/3/2 38/3/2
f 39/2/2 40/2/2 41/2/2
f 41/2/2 40/2/2 42/2/2
f 41/3/2 42/3/2 43/3/2
f 43/3/2 42/3/2 44/3/2
f 45/2/2 46/2/2 47/2/2
f 47/2/2 46/2/2 48/2/2
f 47/3/2 48/3/2 49/3/2
f 49/3/2 48/3/2 50/3/2
f 51/2/2 52/2/2 53/2/2
f 53/2/2 52/2/2 54/2/2
f 53/3/2 54/3/2 55/3/2
f 55/3/2 54/3/2 56/3/2
f 57/2/2 58/2/2 59/2/2
f 59/2/2 58/2/2 60/2/2
f 59/3/2 60/3/2 61/3/2
f 61/3/2 60/3/2 62/3/2
f 63/2/2 64/2/2 65/2/2
f 65/2/2 64/2/2 66/2/2
f 65/3/2 66/3/2 67/3/2
f 67/3/2 66/3/2 68/3/2
f 69/2/2 70/2/2 71/2/2
f 71/2/2 70/2/2 72/2/2
f 71/3/2 72/3/2 73/3/2
f 73/3/2 72/3/2 74/3/2
f 75/2/2 76/2/2 77/2/2
f 77/2/2 76/2/2 78/2/2
f 77/3/2 78/3/2 79/3/2
f 79/3/2 78/3/2 80/3/2
f 81/2/2 82/2/2 83/2/2
f 83/2/2 82/2/2 84/2/2
f 83/3/2 84/3/2 85/3/2
f 85/3/2 84/3/2 86/3/2
f 87/2/2 88/2/2 89/2/2
f 89/2/2 88/2/2 90/2/2
f 89/3/2 90/3/2 91/3/2
f 91/3/2 90/3/2 92/3/2
f 93/2/2 94/2/2 95/2/2
f 95/2/2 94/2/2 96/2/2
f 95/3/2 96/3/2 97/3/2
f 97/3/2 96/3/2 98/3/2
f 99/2/2 100/2/2 101/2/2
f 101/2/2 100/2/2 102/2/2
f 101/3/2 102/3/2 103/3/2
f 103/3/2 102/3/2 104/3/2
f 105/2/2 106/2/2 107/2/2
f 107/2/2 106/2/2 108/2/2
f 107/3/2 108/3/2 109/3/2
f 109/3/2 108/3/2 110/3/2
f 111/2/2 112/2/2 113/2/2
f 113/2/2 112/2/2 114/2/2
f 113/3/2 114/3/2 115/3/2
f 115/3/2 114/3/2 116/3/2
f 117/2/2 118/2/2 119/2/2
f 119/2/2 118/2/2 120/2/2
f 119/3/2 120/3/2 121/3/2
f 121/3/2 120/3/2 122/3/2
f 123/2/2 124/2/2 125/2/2
f 125/2/2 124/2/2 126/2/2
f 125/3/2 126/3/2 127/3/2
f 127/3/2 126/3/2 128/3/2
f 129/2/2 130/2/2 131/2/2
f 131/2/2 130/2/2 132/2/2
f 131/3/2 132/3/2 133/3/2
f 133/3/2 132/3/2 134/3/2
f 135/2/2 136/2/2 137/2/2
f 137/2/2 136/2/2 138/2/2
f 137/3/2 138/3/2 139/3/2
f 139/3/2 138/3/2 140/3/2
f 141/2/2 142/2/2 143/2/2
f 143/2/2 142/2/2 144/2/2
f 143/3/2 144/3/2 145/3/2
f 145/3/2 144/3/2 146/3/2
f 147/1/2 148/1/2 149/1/2
f 149/1/2 148/1/2 150/1/2
f 150/1/2 148/1/2 151/1/2
f 150/2/2 151/2/2 152/2/2
f 152/2/2 151/2/2 153/2/2
f 152/3/2 153/3/2 154/3/2
f 154/3/2 153/3/2 155/3/2
f 160/1/3 157/1/3 156/1/3
f 160/2/3 158/2/3 157/2/3
f 161/3/3 159/3/3 158/3/3
f 161/2/3 158/2/3 160/2/3
f 162/3/3 159/3/3 161/3/3
f 163/1/3 160/1/3 156/1/3
f 164/1/3 160/1/3 163/1/3
f 168/2/3 166/2/3 165/2/3
f 169/3/3 167/3/3 166/3/3
f 169/2/3 166/2/3 168/2/3
f 170/3/3 167/3/3 169/3/3
f 174/2/3 172/2/3 171/2/3
f 175/3/3 173/3/3 172/3/3
f 175/2/3 172/2/3 174/2/3
f 176/3/3 173/3/3 175/3/3
f 180/2/3 178/2/3 177/2/3
f 181/3/3 179/3/3 178/3/3
f 181/2/3 178/2/3 180/2/3
f 182/3/3 179/3/3 181/3/3
f 186/2/3 184/2/3 183/2/3
f 187/3/3 185/3/3 184/3/3
f 187/2/3 184/2/3 186/2/3
f 188/3/3 185/3/3 187/3/3
f 192/2/3 190/2/3 189/2/3
f 193/3/3 191/3/3 190/3/3
f 193/2/3 190/2/3 192/2/3
f 194/3/3 191/3/3 193/3/3
f 198/2/3 196/2/3 195/2/3
f 199/3/3 197/3/3 196/3/3
f 199/2/3 196/2/3 198/2/3
f 200/3/3 197/3/3 199/3/3
f 204/2/3 202/2/3 201/2/3
f 205/3/3 203/3/3 202/3/3
f 205/2/3 202/2/3 204/2/3
f 206/3/3 203/3/3 205/3/3
f 210/2/3 208/2/3 207/2/3
f 211/3/3 209/3/3 208/3/3
f 211/2/3 208/2/3 210/2/3
f 212/3/3 209/3/3 211/3/3
f 216/2/3 214/2/3 213/2/3
f 217/3/3 215/3/3 214/3/3
f 217/2/3 214/2/3 216/2/3
f 218/3/3 215/3/3 217/3/3
f 222/2/3 220/2/3 219/2/3
f 223/3/3 221/3/3 220/3/3
f 223/2/3 220/2/3 222/2/3
f 224/3/3 221/3/3 223/3/3
f 228/2/3 226/2/3 225/2/3
f 229/3/3 227/3/3 226/3/3
f 229/2/3 226/2/3 228/2/3
f 230/3/3 227/3/3 229/3/3
f 234/2/3 232/2/3 231/2/3
f 235/3/3 233/3/3 232/3/3
f 235/2/3 232/2/3 234/2/3
f 236/3/3 233/3/3 235/3/3
f 240/2/3 238/2/3 237/2/3
f 241/3/3 239/3/3 238/3/3
f 241/2/3 238/2/3 240/2/3
f 242/3/3 239/3/3 241/3/3
f 246/2/3 244/2/3 243/2/3
f 247/3/3 245/3/3 244/3/3
f 247/2/3 244/2/3 246/2/3
f 248/3/3 245/3/3 247/3/3
f 252/2/3 250/2/3 249/2/3
f 253/3/3 251/3/3 250/3/3
f 253/2/3 250/2/3 252/2/3
f 254/3/3 251/3/3 253/3/3
f 258/2/3 256/2/3 255/2/3
f 259/3/3 257/3/3 256/3/3
f 259/2/3 256/2/3 258/2/3
f 260/3/3 257/3/3 259/3/3
f 264/2/3 262/2/3 261/2/3
f 265/3/3 263/3/3 262/3/3
f 265/2/3 262/2/3 264/2/3
f 266/3/3 263/3/3 265/3/3
f 270/2/3 268/2/3 267/2/3
f 271/3/3 269/3/3 268/3/3
f 271/2/3 268/2/3 270/2/3
f 272/3/3 269/3/3 271/3/3
f 276/2/3 274/2/3 273/2/3
f 277/3/3 275/3/3 274/3/3
f 277/2/3 274/2/3 276/2/3
f 278/3/3 275/3/3 277/3/3
f 282/2/3 280/2/3 279/2/3
f 283/3/3 281/3/3 280/3/3
f 283/2/3 280/2/3 282/2/3
f 284/3/3 281/3/3 283/3/3
f 288/2/3 286/2/3 285/2/3
f 289/3/3 287/3/3 286/3/3
f 289/2/3 286/2/3 288/2/3
f 290/3/3 287/3/3 289/3/3
f 294/2/3 292/2/3 291/2/3
f 295/3/3 293/3/3 292/3/3
f 295/2/3 292/2/3 294/2/3
f 296/3/3 293/3/3 295/3/3
f 300/2/3 298/2/3 297/2/3
f 301/3/3 299/3/3 298/3/3
f 301/2/3 298/2/3 300/2/3
f 302/3/3 299/3/3 301/3/3
f 303/1/4 304/1/4 307/1/4
f 304/2/4 305/2/4 308/2/4
f 307/1/4 304/1/4 308/1/4
f 305/3/4 306/3/4 309/3/4
f 308/2/4 305/2/4 309/2/4
f 309/3/4 306/3/4 310/3/4
f 313/1/5 312/1/5 311/1/5
f 314/1/5 312/1/5 313/1/5
f 315/1/6 316/1/6 317/1/6
f 317/1/6 316/1/6 318/1/6
f 318/1/6 316/1/6 319/1/6
f 319/1/6 316/1/6 320/1/6
f 320/1/6 316/1/6 321/1/6
f 321/1/6 316/1/6 322/1/6
f 322/1/6 316/1/6 323/1/6
f 323/1/6 316/1/6 324/1/6
f 324/1/6 316/1/6 325/1/6
f 325/1/6 316/1/6 326/1/6
f 326/1/6 316/1/6 327/1/6
f 327/1/6 316/1/6 328/1/6
f 328/1/6 316/1/6 329/1/6
f 329/1/6 316/1/6 330/1/6
f 330/1/6 316/1/6 331/1/6
f 331/1/6 316/1/6 332/1/6
f 332/1/6 316/1/6 333/1/6
f 333/1/6 316/1/6 334/1/6
f 334/1/6 316/1/6 335/1/6
f 335/1/6 316/1/6 336/1/6
f 336/1/6 316/1/6 337/1/6
f 337/1/6 316/1/6 338/1/6
f 338/1/6 316/1/6 339/1/6
f 339/1/6 316/1/6 340/1/6
f 340/1/6 316/1/6 341/1/6
f 341/1/6 316/1/6 342/1/6
f 342/1/6 316/1/6 343/1/6
f 343/1/6 316/1/6 344/1/6
f 344/1/6 316/1/6 345/1/6
f 345/1/6 316/1/6 346/1/6
f 346/1/6 316/1/6 347/1/6
f 347/1/6 316/1/6 348/1/6
f 348/1/6 316/1/6 349/1/6
f 349/1/6 316/1/6 350/1/6
f 350/1/6 316/1/6 351/1/6
f 351/1/6 316/1/6 352/1/6
f 352/1/6 316/1/6 353/1/6
f 353/1/6 316/1/6 354/1/6
f 354/1/6 316/1/6 355/1/6
f 355/1/6 316/1/6 356/1/6
f 356/1/6 316/1/6 357/1/6
f 357/1/6 316/1/6 358/1/6
f 358/1/6 316/1/6 359/1/6
f 359/1/6 316/1/6 360/1/6
f 360/1/6 316/1/6 361/1/6
f 361/1/6 316/1/6 362/1/6
f 363/3/6 364/3/6 365/3/6
f 365/3/6 366/3/6 367/3/6
f 367/3/6 368/3/6 369/3/6
f 369/3/6 370/3/6 371/3/6
f 371/3/6 372/3/6 373/3/6
f 373/3/6 374/3/6 375/3/6
f 375/3/6 376/3/6 377/3/6
f 377/3/6 378/3/6 379/3/6
f 379/3/6 380/3/6 381/3/6
f 381/3/6 382/3/6 383/3/6
f 383/3/6 384/3/6 385/3/6
f 385/3/6 386/3/6 387/3/6
f 387/3/6 388/3/6 389/3/6
f 389/3/6 390/3/6 391/3/6
f 391/3/6 392/3/6 393/3/6
f 393/3/6 394/3/6 395/3/6
f 395/3/6 396/3/6 397/3/6
f 397/3/6 398/3/6 399/3/6
f 399/3/6 400/3/6 401/3/6
f 401/3/6 402/3/6 403/3/6
f 403/3/6 404/3/6 405/3/6
f 405/3/6 406/3/6 407/3/6
f 407/3/6 408/3/6 409/3/6
f 363/3/6 365/3/6 411/3/6
f 409/3/6 410/3/6 411/3/6
f 407/3/6 409/3/6 411/3/6
f 405/3/6 407/3/6 411/3/6
f 403/3/6 405/3/6 411/3/6
f 401/3/6 403/3/6 411/3/6
f 399/3/6 401/3/6 411/3/6
f 397/3/6 399/3/6 411/3/6
f 395/3/6 397/3/6 411/3/6
f 393/3/6 395/3/6 411/3/6
f 391/3/6 393/3/6 411/3/6
f 389/3/6 391/3/6 411/3/6
f 387/3/6 389/3/6 411/3/6
f 385/3/6 387/3/6 411/3/6
f 383/3/6 385/3/6 411/3/6
f 381/3/6 383/3/6 411/3/6
f 379/3/6 381/3/6 411/3/6
f 377/3/6 379/3/6 411/3/6
f 375/3/6 377/3/6 411/3/6
f 373/3/6 375/3/6 411/3/6
f 371/3/6 373/3/6 411/3/6
f 369/3/6 371/3/6 411/3/6
f 367/3/6 369/3/6 411/3/6
f 365/3/6 367/3/6 411/3/6
f 411/3/6 410/3/6 412/3/6
