# MagicaVoxel @ Ephtracy

# group
o 

# material
mtllib Terrain-8.mtl
usemtl palette

# normals
vn -1 0 0
vn 1 0 0
vn 0 0 1
vn 0 0 -1
vn 0 -1 0
vn 0 1 0

# texcoords
vt 0.119141 0.5
vt 0.224609 0.5
vt 0.572266 0.5

# verts
v -6 0 -18
v -6 0 -30
v -6 0.1 -18
v -6 0.1 -30
v -6 0.5 -18
v -6 0.5 -30
v -6 0.6 -18
v -6 0.6 -30
v 6 0 -18
v 6 0 -30
v 6 0.1 -18
v 6 0.1 -30
v 6 0.5 -18
v 6 0.5 -30
v 6 0.6 -18
v 6 0.6 -30
v -6 0 -18
v -6 0.1 -18
v -6 0.5 -18
v -6 0.6 -18
v 6 0 -18
v 6 0.1 -18
v 6 0.5 -18
v 6 0.6 -18
v -6 0 -30
v -6 0.1 -30
v -6 0.5 -30
v -6 0.6 -30
v 6 0 -30
v 6 0.1 -30
v 6 0.5 -30
v 6 0.6 -30
v -6 0 -18
v 6 0 -18
v -6 0 -30
v 6 0 -30
v -6 0.6 -18
v 6 0.6 -18
v -6 0.6 -30
v 6 0.6 -30

# faces
f 3/1/1 2/1/1 1/1/1
f 4/1/1 2/1/1 3/1/1
f 5/2/1 4/2/1 3/2/1
f 6/2/1 4/2/1 5/2/1
f 7/3/1 6/3/1 5/3/1
f 8/3/1 6/3/1 7/3/1
f 9/1/2 10/1/2 11/1/2
f 11/1/2 10/1/2 12/1/2
f 11/2/2 12/2/2 13/2/2
f 13/2/2 12/2/2 14/2/2
f 13/3/2 14/3/2 15/3/2
f 15/3/2 14/3/2 16/3/2
f 21/1/3 18/1/3 17/1/3
f 22/2/3 19/2/3 18/2/3
f 22/1/3 18/1/3 21/1/3
f 23/3/3 20/3/3 19/3/3
f 23/2/3 19/2/3 22/2/3
f 24/3/3 20/3/3 23/3/3
f 25/1/4 26/1/4 29/1/4
f 26/2/4 27/2/4 30/2/4
f 29/1/4 26/1/4 30/1/4
f 27/3/4 28/3/4 31/3/4
f 30/2/4 27/2/4 31/2/4
f 31/3/4 28/3/4 32/3/4
f 35/1/5 34/1/5 33/1/5
f 36/1/5 34/1/5 35/1/5
f 37/3/6 38/3/6 39/3/6
f 39/3/6 38/3/6 40/3/6
